EV Cars Customer Insight Report
…
# 整合 
datas_all = data %>% distinct_at(1)
for(name in names(datas)){
  datas_all %<>% left_join(datas[[name]])
}
data_all <- datas_all

datas_all

## # A tibble: 193 × 114
##    作答ID       了解程度 拥车辆 第一台车类型 第一台车购买场景    第一台车汽车单价
##    <chr>           <dbl>  <int> <fct>        <chr>               <chr>           
##  1 oZbi2E2Q4PRi        5      1 混动车       替换旧车（被替换旧… >=20万且<30万   
##  2 dR9iYltl4PRu        4      1 传统车       家庭第一辆车        >=15万且<20万   
##  3 mqeKuP974PR0        5      1 纯电车       替换旧车（被替换旧… >=20万且<30万   
##  4 NCoUnKWK4PEN        4      1 传统车       家庭第一辆车        >=15万且<20万   
##  5 axx8wjlG4PEK        4      1 传统车       家庭第一辆车        >=15万且<20万   
##  6 Ha9ubotb4PEJ        4      1 传统车       家庭第一辆车        >=10万且<15万   
##  7 piLAllfa4PEG        3      1 传统车       家庭第一辆车        >=15万且<20万   
##  8 bRCMahEk4PEI        4      2 纯电车       家庭第一辆车        <10万           
##  9 eMaYz8oC4PEY        4      1 传统车       家庭第一辆车        >=10万且<15万   
## 10 USi0gkEf4PEm        3      1 纯电车       家庭第一辆车        >=10万且<15万   
## # … with 183 more rows, and 108 more variables: 第一台车购车年份 <dbl>,
## #   第二台车类型 <fct>, 第二台车购买场景 <chr>, 第二台车汽车单价 <chr>,
## #   第二台车购车年份 <dbl>, 第三台车类型 <fct>, 第三台车购买场景 <chr>,
## #   第三台车汽车单价 <chr>, 第三台车购车年份 <dbl>, 下次买车间隔月数 <dbl>,
## #   下次买车预算 <dbl>, 买新能源车概率 <dbl>, 下台车购买计划 <chr>,
## #   获取牌照难度重要性 <dbl>, 充电体验重要性 <dbl>, 续航里程重要性 <dbl>,
## #   汽车价格重要性 <dbl>, 后续维修保养开销重要性 <dbl>, …
…
